<?xml version="1.0" encoding="utf-8"?>
<!-- Generator: Adobe Illustrator 19.2.1, SVG Export Plug-In . SVG Version: 6.00 Build 0)  -->
<svg version="1.1" id="Layer_1" xmlns:sketch="http://www.bohemiancoding.com/sketch/ns"
	 xmlns="http://www.w3.org/2000/svg" xmlns:xlink="http://www.w3.org/1999/xlink" x="0px" y="0px" viewBox="0 0 1362 560"
	 style="enable-background:new 0 0 1362 560;" xml:space="preserve">
<style type="text/css">
	.st0{fill:#E24329;}
	.st1{fill:none;stroke:#E5E5E4;stroke-width:2;stroke-linecap:round;stroke-linejoin:round;stroke-miterlimit:10;}
	.st2{fill:#8C929D;}
	.st3{fill:#FC6D26;}
	.st4{fill:#FCA326;}
	.st5{fill:#444444;}
	.st6{fill:#554488;}
	.st7{fill:#4887C5;}
	.st8{fill:url(#SVGID_1_);}
	.st9{fill:url(#SVGID_2_);}
	.st10{fill:#FFFFFF;}
	.st11{opacity:0.1;}
	.st12{fill:#5C5C5C;}
	.st13{fill:#787878;}
	.st14{fill:#A1A1A1;}
	.st15{opacity:0.15;}
	.st16{fill:#373D47;}
	.st17{fill:none;stroke:#000000;stroke-miterlimit:10;}
	.st18{fill:none;stroke:#FC6D26;stroke-width:1.8;stroke-linecap:round;stroke-linejoin:round;stroke-miterlimit:10;}
	.st19{fill:none;stroke:#E24329;stroke-width:1.8;stroke-linecap:round;stroke-linejoin:round;stroke-miterlimit:10;}
	.st20{fill:none;stroke:#FCA326;stroke-width:1.8;stroke-linecap:round;stroke-linejoin:round;stroke-miterlimit:10;}
	.st21{fill:none;stroke:#E5E5E4;stroke-width:1.8;stroke-linecap:round;stroke-linejoin:round;stroke-miterlimit:10;}
	.st22{fill:#2B2B2B;}
	.st23{fill:#FFFFFF;stroke:#E5E5E4;stroke-width:2;stroke-linecap:round;stroke-linejoin:round;stroke-miterlimit:10;}
	.st24{fill:#E5E5E4;}
	.st25{fill:none;stroke:#E5E5E4;stroke-width:1.8353;stroke-linecap:round;stroke-linejoin:round;stroke-miterlimit:10;}
	.st26{fill:none;stroke:#E14329;stroke-width:2;stroke-linecap:round;stroke-linejoin:round;stroke-miterlimit:10;}
	.st27{fill:#FFFFFF;stroke:#E14329;stroke-width:2;stroke-linecap:round;stroke-linejoin:round;stroke-miterlimit:10;}
	.st28{fill:none;stroke:#E14329;stroke-width:1.9627;stroke-linecap:round;stroke-linejoin:round;stroke-miterlimit:10;}
	.st29{fill:#E14329;}
	.st30{fill:none;stroke:#E14329;stroke-width:2.1099;stroke-linecap:round;stroke-linejoin:round;stroke-miterlimit:10;}
	.st31{fill:none;stroke:#FCA326;stroke-width:2;stroke-linecap:round;stroke-linejoin:round;stroke-miterlimit:10;}
	.st32{fill:none;stroke:#E14329;stroke-width:4;stroke-linecap:round;stroke-linejoin:round;stroke-miterlimit:10;}
	.st33{fill:none;stroke:#E14329;stroke-width:1.8353;stroke-linecap:round;stroke-linejoin:round;stroke-miterlimit:10;}
	.st34{fill:none;stroke:#E14329;stroke-width:2.055;stroke-linecap:round;stroke-linejoin:round;stroke-miterlimit:10;}
	.st35{fill:#463675;}
	.st36{fill:none;stroke:#FFFFFF;stroke-width:2;stroke-miterlimit:10;}
	.st37{fill:none;stroke:#FFFFFF;stroke-width:2.0065;stroke-miterlimit:10;}
	.st38{fill:none;stroke:#E14329;stroke-width:2.1111;stroke-linecap:round;stroke-linejoin:round;stroke-miterlimit:10;}
	.st39{fill:none;stroke:#E14329;stroke-width:2.0295;stroke-linecap:round;stroke-linejoin:round;stroke-miterlimit:10;}
	.st40{fill:#FFB6CA;}
	.st41{fill:none;stroke:#E24329;stroke-width:2;stroke-linecap:round;stroke-linejoin:round;stroke-miterlimit:10;}
	.st42{fill:none;stroke:#E14329;stroke-width:2.0074;stroke-linecap:round;stroke-linejoin:round;stroke-miterlimit:10;}
	.st43{fill:none;stroke:#E14329;stroke-width:1.9282;stroke-linecap:round;stroke-linejoin:round;stroke-miterlimit:10;}
	.st44{fill:none;stroke:#E14329;stroke-width:2.0019;stroke-linecap:round;stroke-linejoin:round;stroke-miterlimit:10;}
	.st45{fill:none;stroke:#E14329;stroke-width:2.0013;stroke-linecap:round;stroke-linejoin:round;stroke-miterlimit:10;}
	.st46{fill:none;stroke:#E14329;stroke-width:2.0821;stroke-linecap:round;stroke-linejoin:round;stroke-miterlimit:10;}
	.st47{fill:none;stroke:#E14329;stroke-width:1.8741;stroke-linecap:round;stroke-linejoin:round;stroke-miterlimit:10;}
	.st48{fill:none;stroke:#E14329;stroke-width:1.9965;stroke-linecap:round;stroke-linejoin:round;stroke-miterlimit:10;}
	.st49{fill:none;stroke:#E14329;stroke-width:2.1108;stroke-linecap:round;stroke-linejoin:round;stroke-miterlimit:10;}
	.st50{fill:none;stroke:#E14329;stroke-width:2.1;stroke-linecap:round;stroke-linejoin:round;stroke-miterlimit:10;}
	.st51{fill:none;stroke:#E14329;stroke-width:2.1103;stroke-linecap:round;stroke-linejoin:round;stroke-miterlimit:10;}
	.st52{fill:none;stroke:#E14329;stroke-width:1.9134;stroke-linecap:round;stroke-linejoin:round;stroke-miterlimit:10;}
	.st53{fill:none;stroke:#E14329;stroke-width:1.8373;stroke-linecap:round;stroke-linejoin:round;stroke-miterlimit:10;}
	.st54{fill:none;stroke:#E24329;stroke-width:2.0215;stroke-linecap:round;stroke-linejoin:round;stroke-miterlimit:10;}
	.st55{fill:none;stroke:#E24329;stroke-width:2.1768;stroke-linecap:round;stroke-linejoin:round;stroke-miterlimit:10;}
	.st56{fill:#FFFFFF;stroke:#E14329;stroke-width:1.8373;stroke-linecap:round;stroke-linejoin:round;stroke-miterlimit:10;}
	.st57{fill:#FFFFFF;stroke:#E14329;stroke-width:1.725;stroke-linecap:round;stroke-linejoin:round;stroke-miterlimit:10;}
	.st58{fill:none;stroke:#000000;stroke-width:2;stroke-miterlimit:10;}
	.st59{fill:none;stroke:#373D47;stroke-width:2;stroke-linecap:round;stroke-linejoin:round;stroke-miterlimit:10;}
	.st60{fill:#FFFFFF;stroke:#373D47;stroke-width:2;stroke-linecap:round;stroke-linejoin:round;stroke-miterlimit:10;}
</style>
<g>
	<g>
		<path id="path14_20_" class="st2" d="M956.9,218.7h-25.2l0.1,187.7h102v-23.2H957L956.9,218.7L956.9,218.7z"/>
		<g id="g24_20_" transform="translate(977.327440, 143.284396)" sketch:type="MSLayerGroup">
			<path id="path26_20_" sketch:type="MSShapeGroup" class="st2" d="M153.6,230.2c-6.4,6.6-16.9,13.2-31.2,13.2
				c-19.2,0-26.9-9.5-26.9-21.8c0-18.6,12.9-27.5,40.4-27.5c5.2,0,13.5,0.6,17.8,1.4v34.8H153.6z M127.5,116.4
				c-20.3,0-39,7.2-53.6,19.3l8.9,15.5c10.3-6,22.9-12,41-12c20.7,0,29.8,10.6,29.8,28.4v9.1c-4-0.8-12.4-1.4-17.4-1.4
				c-44.1,0-66.5,15.5-66.5,47.8c0,29,17.8,43.6,44.7,43.6c18.1,0,35.6-8.3,41.6-21.8l4.6,18.4h17.8v-96.1
				C178.2,136.7,165,116.4,127.5,116.4L127.5,116.4z"/>
		</g>
		<g id="g28_20_" transform="translate(1099.766904, 143.128930)" sketch:type="MSLayerGroup">
			<path id="path30_20_" sketch:type="MSShapeGroup" class="st2" d="M137.1,244.4c-9.5,0-17.8-1.2-24-4v-77.7v-9
				c8.5-7.2,19.2-12.4,32.7-12.4c24.4,0,33.7,17.2,33.7,45.1C179.5,225.8,164.4,244.4,137.1,244.4 M147.8,116.6
				c-22.5,0-34.7,15.4-34.7,15.4v-24.3L113,75.6h-11.3H88.4l0.1,183.1c12.4,5.2,29.2,8,47.6,8c47,0,69.7-30,69.7-81.9
				C205.6,143.7,184.7,116.6,147.8,116.6"/>
		</g>
		<g id="g32_20_" transform="translate(584.042117, 143.630796)" sketch:type="MSLayerGroup">
			<path id="path34_20_" sketch:type="MSShapeGroup" class="st2" d="M98.7,95.4c22.3,0,36.7,7.4,46.1,14.9l10.9-18.8
				c-14.7-12.9-34.5-19.9-55.8-19.9c-53.6,0-91.1,32.7-91.1,98.7c0,69.1,40.5,96,86.9,96c23.2,0,43-5.4,55.9-10.9l-0.6-73.8v-8.7
				v-14.6H82.1v23.2H126l0.6,56c-5.8,2.9-15.7,5.2-29.2,5.2c-37.2,0-62.2-23.5-62.2-72.8C35.1,119.8,60.9,95.4,98.7,95.4"/>
		</g>
		<g id="g36_20_" transform="translate(793.569045, 142.577463)" sketch:type="MSLayerGroup">
			<path id="path38_20_" sketch:type="MSShapeGroup" class="st2" d="M66.5,76.1H41.9l0.1,31.5v12.9v7.5v13.2v75.1v0.2
				c0,30.4,13.2,50.7,50.7,50.7c5.2,0,10.3-0.5,15.1-1.4v-22.1c-3.6,0.6-7.4,0.8-11.4,0.8c-20.7,0-29.8-10.6-29.8-28.4v-75.1h41.2
				v-20.6H66.6L66.5,76.1L66.5,76.1z"/>
		</g>
		<path id="path40_20_" sketch:type="MSShapeGroup" class="st2" d="M772.9,406.4h24.6V263.1h-24.6V406.4L772.9,406.4z"/>
		<path id="path42_20_" sketch:type="MSShapeGroup" class="st2" d="M772.9,243.4h24.6v-24.6h-24.6V243.4L772.9,243.4z"/>
	</g>
	<g>
		<g id="g44_98_" transform="translate(0.532000, 0.774933)" sketch:type="MSLayerGroup">
			<path id="path46_247_" sketch:type="MSShapeGroup" class="st3" d="M541.6,311.4l-27.3-83.8L460.4,61.5c-2.8-8.5-14.8-8.5-17.7,0
				l-53.9,166H209.6l-53.9-166c-2.8-8.5-14.8-8.5-17.7,0l-53.8,166l-27.3,83.9c-2.5,7.6,0.2,16,6.7,20.7l235.6,171.2l235.6-171.2
				C541.3,327.4,544.1,319,541.6,311.4"/>
		</g>
		<g id="g48_51_" transform="translate(155.197863, 1.160267)" sketch:type="MSLayerGroup">
			<path id="path50_51_" sketch:type="MSShapeGroup" class="st0" d="M144.6,502.8L144.6,502.8l89.6-275.7H55L144.6,502.8
				L144.6,502.8z"/>
		</g>
		<g id="g56_55_" transform="translate(28.531199, 1.160800)" sketch:type="MSLayerGroup">
			<path id="path58_55_" sketch:type="MSShapeGroup" class="st3" d="M271.2,502.8l-89.6-275.7H56.2L271.2,502.8L271.2,502.8z"/>
		</g>
		<g id="g64_56_" transform="translate(0.088533, 0.255867)" sketch:type="MSLayerGroup">
			<path id="path66_56_" sketch:type="MSShapeGroup" class="st4" d="M84.6,228.1L84.6,228.1l-27.3,83.8c-2.5,7.6,0.2,16,6.7,20.7
				l235.6,171.2L84.6,228.1L84.6,228.1z"/>
		</g>
		<g id="g72_42_" transform="translate(29.421866, 280.255593)" sketch:type="MSLayerGroup">
			<path id="path74_42_" sketch:type="MSShapeGroup" class="st0" d="M55.3-51.9h125.5l-54-166c-2.8-8.5-14.8-8.5-17.7,0L55.3-51.9
				L55.3-51.9z"/>
		</g>
		<g id="g76_45_" transform="translate(247.197860, 1.160800)" sketch:type="MSLayerGroup">
			<path id="path78_45_" sketch:type="MSShapeGroup" class="st3" d="M52.6,502.8l89.6-275.7h125.5L52.6,502.8L52.6,502.8z"/>
		</g>
		<g id="g80_46_" transform="translate(246.307061, 0.255867)" sketch:type="MSLayerGroup">
			<path id="path82_46_" sketch:type="MSShapeGroup" class="st4" d="M268.5,228.1L268.5,228.1l27.3,83.8c2.5,7.6-0.2,16-6.7,20.7
				L53.5,503.7L268.5,228.1L268.5,228.1z"/>
		</g>
		<g id="g84_52_" transform="translate(336.973725, 280.255593)" sketch:type="MSLayerGroup">
			<path id="path86_52_" sketch:type="MSShapeGroup" class="st0" d="M177.9-51.9H52.4l53.9-166c2.8-8.5,14.8-8.5,17.7,0L177.9-51.9
				L177.9-51.9z"/>
		</g>
	</g>
	<g>
		<path class="st16" d="M611.2,462.5h-10.5l-2.4,8.5h-5.7l10.3-31.4h6.5l10.2,31.4h-5.9L611.2,462.5z M610,458.2l-1.1-3.8
			c-1-3.3-1.9-6.9-2.8-10.4h-0.2c-0.9,3.5-1.8,7.1-2.8,10.4l-1.1,3.8H610z"/>
		<path class="st16" d="M624.3,439.6h5.6v18c0,6.8,2.6,9.1,6.4,9.1c3.8,0,6.5-2.3,6.5-9.1v-18h5.4v17.6c0,10.3-4.6,14.4-11.9,14.4
			c-7.3,0-12-4-12-14.4V439.6z"/>
		<path class="st16" d="M663.8,444.3h-9.1v-4.7h23.7v4.7h-9V471h-5.6V444.3z"/>
		<path class="st16" d="M685,439.6h5.6v12.6h12.7v-12.6h5.6V471h-5.6v-13.9h-12.7V471H685V439.6z"/>
		<path class="st16" d="M716.8,455.2c0-10.1,5.7-16.1,13.9-16.1c8.2,0,13.8,6,13.8,16.1c0,10.2-5.7,16.4-13.8,16.4
			C722.5,471.6,716.8,465.4,716.8,455.2z M738.8,455.2c0-7-3.2-11.3-8.1-11.3c-4.9,0-8.2,4.3-8.2,11.3c0,7.1,3.2,11.6,8.2,11.6
			C735.6,466.8,738.8,462.2,738.8,455.2z"/>
		<path class="st16" d="M769.6,471l-6.8-12.3h-4.8V471h-5.6v-31.4h10.6c6.5,0,11.6,2.3,11.6,9.3c0,4.8-2.5,7.7-6.3,9l7.5,13.1H769.6
			z M758.1,454.3h4.4c4.3,0,6.6-1.8,6.6-5.4c0-3.6-2.3-4.8-6.6-4.8h-4.4V454.3z"/>
		<path class="st16" d="M782.8,439.6h5.6V471h-5.6V439.6z"/>
		<path class="st16" d="M798.6,463.2c2.3,2.1,5.3,3.6,8.2,3.6c3.5,0,5.5-1.6,5.5-4c0-2.6-2-3.4-4.9-4.6l-4.3-1.9
			c-3.1-1.3-6.3-3.7-6.3-8.4c0-5,4.4-8.8,10.5-8.8c3.7,0,7.2,1.5,9.7,4l-2.9,3.6c-2-1.7-4.1-2.7-6.8-2.7c-3,0-4.9,1.4-4.9,3.7
			c0,2.4,2.4,3.4,5,4.4l4.2,1.8c3.7,1.6,6.3,3.9,6.3,8.5c0,5.1-4.2,9.3-11.3,9.3c-4.2,0-8.3-1.7-11.3-4.6L798.6,463.2z"/>
		<path class="st16" d="M825.4,439.6h18.9v4.7H831v8h11.3v4.7H831v9.3h13.8v4.7h-19.3V439.6z"/>
		<path class="st16" d="M852.5,439.6h8.4c9.6,0,15.3,5.2,15.3,15.6c0,10.4-5.7,15.8-15,15.8h-8.6V439.6z M860.4,466.5
			c6.3,0,10-3.6,10-11.3c0-7.7-3.6-11-10-11H858v22.4H860.4z"/>
		<path class="st16" d="M914.1,471l-6.8-12.3h-4.8V471H897v-31.4h10.6c6.5,0,11.6,2.3,11.6,9.3c0,4.8-2.5,7.7-6.3,9l7.5,13.1H914.1z
			 M902.6,454.3h4.4c4.3,0,6.6-1.8,6.6-5.4c0-3.6-2.3-4.8-6.6-4.8h-4.4V454.3z"/>
		<path class="st16" d="M927.3,439.6h18.9v4.7h-13.3v8h11.3v4.7h-11.3v9.3h13.8v4.7h-19.3V439.6z"/>
		<path class="st16" d="M956,463.2c2.3,2.1,5.3,3.6,8.2,3.6c3.5,0,5.5-1.6,5.5-4c0-2.6-2-3.4-4.9-4.6l-4.3-1.9
			c-3.1-1.3-6.3-3.7-6.3-8.4c0-5,4.4-8.8,10.5-8.8c3.7,0,7.2,1.5,9.7,4l-2.9,3.6c-2-1.7-4.1-2.7-6.8-2.7c-3,0-4.9,1.4-4.9,3.7
			c0,2.4,2.4,3.4,5,4.4l4.2,1.8c3.7,1.6,6.3,3.9,6.3,8.5c0,5.1-4.2,9.3-11.3,9.3c-4.2,0-8.3-1.7-11.3-4.6L956,463.2z"/>
		<path class="st16" d="M982.8,439.6h18.9v4.7h-13.3v8h11.3v4.7h-11.3v9.3h13.8v4.7h-19.3V439.6z"/>
		<path class="st16" d="M1009.9,439.6h5.6v26.7h13v4.7h-18.6V439.6z"/>
		<path class="st16" d="M1035.2,439.6h5.6v26.7h13v4.7h-18.6V439.6z"/>
		<path class="st16" d="M1060.5,439.6h18.9v4.7h-13.3v8h11.3v4.7h-11.3v9.3h13.8v4.7h-19.3V439.6z"/>
		<path class="st16" d="M1104.7,471l-6.8-12.3h-4.8V471h-5.6v-31.4h10.6c6.5,0,11.6,2.3,11.6,9.3c0,4.8-2.5,7.7-6.3,9l7.5,13.1
			H1104.7z M1093.2,454.3h4.4c4.3,0,6.6-1.8,6.6-5.4c0-3.6-2.3-4.8-6.6-4.8h-4.4V454.3z"/>
	</g>
</g>
</svg>
